代码/Verilog HDL/数电/JK_bianyan/simulation/qsim/JK_bianyan.msim.vcd
$comment
	File created using the following command:
		vcd file JK_bianyan.msim.vcd -direction
$end
$date
	Sun Nov 24 14:11:50 2019
$end
$version
	ModelSim Version 10.5b
$end
$timescale
	1ps
$end

$scope module JK_bianyan_vlg_vec_tst $end
$var reg 1 ! J $end
$var reg 1 " K $end
$var reg 1 # clk $end
$var wire 1 $ Q $end

$scope module i1 $end
$var wire 1 % gnd $end
$var wire 1 & vcc $end
$var wire 1 ' unknown $end
$var tri1 1 ( devclrn $end
$var tri1 1 ) devpor $end
$var tri1 1 * devoe $end
$var wire 1 + ~QUARTUS_CREATED_GND~I_combout $end
$var wire 1 , clk~input_o $end
$var wire 1 - K~input_o $end
$var wire 1 . J~input_o $end
$var wire 1 / Mux0~0_combout $end
$var wire 1 0 Q~reg0feeder_combout $end
$var wire 1 1 Q~reg0_q $end
$upscope $end
$upscope $end
$enddefinitions $end
#0
$dumpvars
0!
1"
0#
0$
0%
1&
x'
1(
1)
1*
0+
0,
1-
0.
0/
00
01
$end
#5000
1!
0"
1.
0-
1/
10
#10000
1#
0!
0.
1,
0/
00
11
1$
1/
10
#15000
1"
1-
0/
00
#20000
0#
1!
0"
1.
0-
0,
1/
10
#25000
1"
1-
0/
00
#30000
1#
1,
01
0$
1/
10
#40000
0"
0#
0-
0,
#45000
0!
0.
0/
00
#50000
1"
1#
1-
1,
#55000
1!
0"
1.
0-
1/
10
#60000
0#
0,
#65000
0!
1"
0.
1-
0/
00
#70000
1#
1,
#75000
1!
1.
1/
10
#80000
0"
0#
0!
0-
0.
0,
0/
00
#85000
1"
1-
#90000
1#
1!
1.
1,
1/
10
#100000
0"
0#
0!
0-
0.
0,
0/
00
#105000
1"
1-
#110000
1#
1,
#115000
0"
0-
#120000
0#
1"
1-
0,
#125000
1!
1.
1/
10
#130000
1#
1,
11
1$
0/
00
#135000
0"
0-
1/
10
#140000
0#
0,
#145000
0!
1"
0.
1-
0/
00
#150000
1#
1!
1.
1,
01
0$
1/
10
#155000
0"
0!
0-
0.
0/
00
#160000
0#
1!
1.
0,
1/
10
#165000
0!
0.
0/
00
#170000
1#
1,
#180000
1"
0#
1-
0,
#190000
1!
0"
1#
1.
0-
1,
1/
10
#195000
0!
1"
0.
1-
0/
00
#200000
0#
0"
0-
0,
#205000
1!
1.
1/
10
#210000
1#
1,
11
1$
#215000
1"
0!
1-
0.
0/
00
#220000
0#
1!
1.
0,
#225000
0!
0.
#230000
0"
1#
1!
0-
1.
1,
1/
10
01
0$
#240000
0#
0!
0.
0,
0/
00
#245000
1"
1-
#250000
1#
1,
#255000
1!
0"
1.
0-
1/
10
#260000
0#
0!
0.
0,
0/
00
#270000
1#
1,
#275000
1!
1.
1/
10
#280000
0#
0,
#285000
1"
0!
1-
0.
0/
00
#290000
1#
0"
0-
1,
#295000
1!
1.
1/
10
#300000
0#
1"
1-
0,
#310000
0!
1#
0.
1,
0/
00
11
1$
#315000
1!
1.
#320000
0"
0#
0-
0,
1/
10
#330000
1"
1#
1-
1,
0/
00
#340000
0"
0#
0-
0,
1/
10
#350000
0!
1#
0.
1,
#355000
1!
1.
#360000
0#
0!
0.
0,
#365000
1"
1!
1-
1.
0/
00
#370000
1#
1,
01
0$
1/
10
#375000
0"
0-
#380000
0#
0,
#385000
0!
0.
0/
00
#390000
1"
1#
1!
1-
1.
1,
1/
10
#395000
0"
0!
0-
0.
0/
00
#400000
0#
1!
1.
0,
1/
10
#410000
1#
0!
0.
1,
0/
00
11
1$
1/
10
#415000
1!
1.
#420000
0#
0,
#430000
0!
1#
0.
1,
#435000
1"
1-
0/
00
#440000
1!
0#
1.
0,
#450000
0!
1#
0.
1,
01
0$
#460000
0#
0,
#465000
0"
0-
#470000
1#
1"
1-
1,
#475000
1!
0"
1.
0-
1/
10
#480000
0#
0,
#485000
1"
1-
#490000
0!
1#
0.
1,
0/
00
11
1$
#500000
1!
0#
1.
0,
#510000
0"
1#
0-
1,
1/
10
01
0$
#515000
0!
0.
0/
00
#520000
0#
1!
1.
0,
1/
10
#525000
1"
0!
1-
0.
0/
00
#530000
1#
0"
0-
1,
#535000
1!
1.
1/
10
#540000
0#
1"
1-
0,
#545000
0!
0.
0/
00
#550000
1#
1,
#560000
0"
0#
0-
0,
#565000
1"
1-
#570000
1!
1#
1.
1,
1/
10
#580000
0"
0!
0#
0-
0.
0,
0/
00
#590000
1"
1!
1#
1-
1.
1,
1/
10
#595000
0"
0-
#600000
0!
0#
1"
0.
1-
0,
0/
00
#605000
1!
0"
1.
0-
1/
10
#610000
1#
0!
0.
1,
0/
00
11
1$
1/
10
#615000
1"
1!
1-
1.
0/
00
#620000
0#
0"
0!
0-
0.
0,
1/
10
#625000
1"
1-
0/
00
#630000
1#
1!
1.
1,
01
0$
1/
10
#635000
0!
0.
0/
00
#640000
0#
1!
1.
0,
1/
10
#645000
0"
0!
0-
0.
0/
00
#650000
1#
1,
#655000
1"
1!
1-
1.
1/
10
#660000
0#
0!
0.
0,
0/
00
#665000
0"
0-
#670000
1#
1!
1"
1.
1-
1,
1/
10
#675000
0"
0-
#680000
0#
0!
1"
0.
1-
0,
0/
00
#685000
1!
1.
1/
10
#690000
1#
0"
0!
0-
0.
1,
0/
00
11
1$
1/
10
#695000
1!
1.
#700000
0#
1"
1-
0,
0/
00
#705000
0"
0-
1/
10
#710000
1#
1"
1-
1,
0/
00
#715000
0!
0"
0.
0-
1/
10
#720000
0#
1!
1"
1.
1-
0,
0/
00
#725000
0!
0"
0.
0-
1/
10
#730000
1#
1!
1"
1.
1-
1,
0/
00
#735000
0!
0.
#740000
0#
0"
1!
0-
1.
0,
1/
10
#745000
1"
0!
1-
0.
0/
00
#750000
1#
1,
01
0$
#755000
0"
0-
#760000
1!
0#
1.
0,
1/
10
#770000
1#
1,
11
1$
#775000
0!
0.
#780000
1"
0#
1!
1-
1.
0,
0/
00
#785000
0!
0.
#790000
0"
1#
0-
1,
1/
10
01
0$
0/
00
#795000
1!
1.
1/
10
#800000
1"
0#
1-
0,
#805000
0"
0-
#810000
1#
1,
11
1$
#820000
0!
0#
0.
0,
#825000
1!
1.
#830000
1"
1#
0!
1-
0.
1,
0/
00
#835000
1!
1.
#840000
0"
0#
0-
0,
1/
10
#845000
0!
0.
#850000
1#
1!
1.
1,
#860000
1"
0#
1-
0,
0/
00
#865000
0!
0"
0.
0-
1/
10
#870000
1#
1!
1"
1.
1-
1,
0/
00
#875000
0!
0.
#880000
0#
1!
1.
0,
#890000
0"
1#
0!
0-
0.
1,
1/
10
01
0$
0/
00
#900000
0#
0,
#905000
1!
1.
1/
10
#910000
1"
1#
1-
1,
11
1$
0/
00
#920000
0!
0"
0#
0.
0-
0,
1/
10
#925000
1!
1.
#930000
1#
0!
0.
1,
#940000
1"
0#
1!
1-
1.
0,
0/
00
#945000
0!
0.
#950000
1#
1,
01
0$
#960000
0"
1!
0#
0-
1.
0,
1/
10
#965000
1"
1-
#970000
0!
1#
0.
1,
0/
00
11
1$
#980000
1!
0#
1.
0,
#985000
0!
0.
#990000
1#
1,
01
0$
