代码/Verilog HDL/数电/D_danping/simulation/qsim/D_dianping.msim.vcd
$comment
	File created using the following command:
		vcd file D_dianping.msim.vcd -direction
$end
$date
	Sat Nov 23 22:51:42 2019
$end
$version
	ModelSim Version 10.5b
$end
$timescale
	1ps
$end

$scope module D_dianping_vlg_vec_tst $end
$var reg 1 ! C $end
$var reg 1 " D $end
$var wire 1 # Q $end

$scope module i1 $end
$var wire 1 $ gnd $end
$var wire 1 % vcc $end
$var wire 1 & unknown $end
$var tri1 1 ' devclrn $end
$var tri1 1 ( devpor $end
$var tri1 1 ) devoe $end
$var wire 1 * ~QUARTUS_CREATED_GND~I_combout $end
$var wire 1 + D~input_o $end
$var wire 1 , C~input_o $end
$var wire 1 - Q$latch~combout $end
$upscope $end
$upscope $end
$enddefinitions $end
#0
$dumpvars
1!
1"
1#
0$
1%
x&
1'
1(
1)
0*
1+
1,
1-
$end
#5000
0!
0"
0,
0+
#10000
1!
1,
0-
0#
#15000
1"
0!
1+
0,
#25000
1!
1,
1-
1#
#30000
0"
0+
0-
0#
#35000
0!
0,
#40000
1!
1,
#50000
1"
0!
1+
0,
#55000
0"
0+
#60000
1!
1"
1,
1+
1-
1#
#70000
0!
0,
#75000
1!
1,
#80000
0!
0,
#95000
1!
1,
#100000
0"
0!
0+
0,
#110000
1"
1!
1+
1,
#120000
0"
0+
0-
0#
#135000
1"
1+
1-
1#
#140000
0"
0+
0-
0#
#145000
1"
1+
1-
1#
#155000
0!
0,
#160000
0"
0+
#165000
1!
1"
1,
1+
#170000
0!
0"
0,
0+
#185000
1"
1+
#190000
1!
1,
#200000
0!
0,
#205000
1!
1,
#210000
0!
0,
#215000
0"
1!
0+
1,
0-
0#
#220000
1"
1+
1-
1#
#225000
0!
0"
0,
0+
#230000
1!
1,
0-
0#
#245000
1"
0!
1+
0,
#255000
0"
1!
0+
1,
#260000
1"
0!
1+
0,
#265000
0"
0+
#270000
1!
1,
#275000
1"
0!
1+
0,
#280000
0"
1!
0+
1,
#285000
1"
1+
1-
1#
#290000
0!
0"
0,
0+
#295000
1!
1,
0-
0#
#300000
1"
0!
1+
0,
#305000
1!
1,
1-
1#
#310000
0!
0,
#315000
1!
1,
#320000
0"
0+
0-
0#
#330000
1"
1+
1-
1#
#335000
0!
0,
#340000
0"
1!
0+
1,
0-
0#
#345000
1"
1+
1-
1#
#355000
0!
0"
0,
0+
#360000
1!
1,
0-
0#
#365000
1"
0!
1+
0,
#370000
1!
1,
1-
1#
#380000
0"
0!
0+
0,
#385000
1"
1+
#390000
1!
1,
#400000
0!
0,
#410000
0"
1!
0+
1,
0-
0#
#420000
0!
0,
#425000
1"
1!
1+
1,
1-
1#
#430000
0"
0+
0-
0#
#435000
0!
1"
0,
1+
#445000
0"
0+
#450000
1"
1+
#455000
0"
0+
#460000
1!
1,
#465000
1"
0!
1+
0,
#470000
1!
1,
1-
1#
#475000
0"
0+
0-
0#
#480000
0!
1"
0,
1+
#485000
1!
1,
1-
1#
#490000
0!
0,
#495000
0"
0+
#500000
1!
1"
1,
1+
#505000
0!
0"
0,
0+
#515000
1!
1"
1,
1+
#520000
0"
0+
0-
0#
#530000
0!
1"
0,
1+
#545000
1!
1,
1-
1#
#550000
0"
0!
0+
0,
#555000
1"
1!
1+
1,
#560000
0"
0!
0+
0,
#565000
1!
1,
0-
0#
#570000
1"
0!
1+
0,
#575000
0"
0+
#585000
1!
1"
1,
1+
1-
1#
#600000
0!
0"
0,
0+
#605000
1"
1+
#615000
1!
0"
1,
0+
0-
0#
#625000
0!
1"
0,
1+
#645000
1!
0"
1,
0+
#665000
0!
0,
#670000
1"
1!
1+
1,
1-
1#
#675000
0"
0!
0+
0,
#680000
1!
1,
0-
0#
#690000
1"
1+
1-
1#
#695000
0!
0,
#700000
0"
0+
#710000
1"
1+
#715000
1!
1,
#720000
0!
0,
#725000
0"
0+
#730000
1!
1"
1,
1+
#735000
0!
0"
0,
0+
#740000
1"
1+
#745000
0"
0+
#750000
1!
1,
0-
0#
#755000
0!
0,
#760000
1"
1+
#765000
1!
0"
1,
0+
#775000
0!
1"
0,
1+
#780000
1!
1,
1-
1#
#785000
0!
0,
#790000
1!
1,
#795000
0"
0!
0+
0,
#805000
1"
1+
#810000
0"
0+
#815000
1!
1"
1,
1+
#820000
0!
0"
0,
0+
#825000
1"
1+
#830000
1!
0"
1,
0+
0-
0#
#835000
0!
0,
#840000
1"
1+
#850000
1!
0"
1,
0+
#855000
0!
0,
#860000
1"
1!
1+
1,
1-
1#
#865000
0!
0,
#870000
1!
1,
#875000
0"
0!
0+
0,
#880000
1"
1+
#885000
1!
0"
1,
0+
0-
0#
#890000
1"
1+
1-
1#
#900000
0"
0+
0-
0#
#905000
0!
0,
#910000
1!
1,
#915000
1"
1+
1-
1#
#925000
0!
0"
0,
0+
#930000
1!
1,
0-
0#
#935000
1"
1+
1-
1#
#940000
0"
0+
0-
0#
#950000
0!
0,
#955000
1"
1+
#960000
1!
0"
1,
0+
#975000
0!
0,
#980000
1"
1!
1+
1,
1-
1#
#990000
0"
0!
0+
0,
#995000
1"
1!
1+
1,
