代码/Verilog HDL/数电/T_bianyan/simulation/qsim/T_binayan.msim.vcd
$comment
	File created using the following command:
		vcd file T_binayan.msim.vcd -direction
$end
$date
	Sun Nov 24 20:44:56 2019
$end
$version
	ModelSim Version 10.5b
$end
$timescale
	1ps
$end

$scope module T_binayan_vlg_vec_tst $end
$var reg 1 ! T $end
$var reg 1 " clk $end
$var wire 1 # Q $end

$scope module i1 $end
$var wire 1 $ gnd $end
$var wire 1 % vcc $end
$var wire 1 & unknown $end
$var tri1 1 ' devclrn $end
$var tri1 1 ( devpor $end
$var tri1 1 ) devoe $end
$var wire 1 * ~QUARTUS_CREATED_GND~I_combout $end
$var wire 1 + clk~input_o $end
$var wire 1 , T~input_o $end
$var wire 1 - Q~0_combout $end
$var wire 1 . Q~reg0feeder_combout $end
$var wire 1 / Q~reg0_q $end
$upscope $end
$upscope $end
$enddefinitions $end
#0
$dumpvars
0!
0"
0#
0$
1%
x&
1'
1(
1)
0*
0+
0,
0-
0.
0/
$end
#5000
1"
1!
1,
1+
1-
1.
#10000
0"
0+
#15000
1"
1+
1/
1#
0-
0.
#20000
0!
0"
0,
0+
1-
1.
#25000
1"
1+
#30000
1!
0"
1,
0+
0-
0.
#35000
0!
1"
0,
1+
1-
1.
0/
0#
0-
0.
#40000
1!
0"
1,
0+
1-
1.
#45000
1"
1+
1/
1#
0-
0.
#50000
0!
0"
0,
0+
1-
1.
#55000
1"
1+
#60000
0"
0+
#65000
1"
1+
#70000
1!
0"
1,
0+
0-
0.
#75000
0!
1"
0,
1+
1-
1.
0/
0#
0-
0.
#80000
0"
0+
#85000
1"
1+
#90000
1!
0"
1,
0+
1-
1.
#95000
1"
1+
1/
1#
0-
0.
#100000
0!
0"
0,
0+
1-
1.
#105000
1!
1"
1,
1+
0-
0.
#110000
0!
0"
0,
0+
1-
1.
#115000
1"
1+
#120000
0"
0+
#125000
1!
1"
1,
1+
0-
0.
#130000
0"
0+
#135000
1"
1+
0/
0#
1-
1.
#140000
0!
0"
0,
0+
0-
0.
#145000
1"
1+
#150000
0"
0+
#155000
1!
1"
1,
1+
1-
1.
#160000
0"
0+
#165000
1"
1+
1/
1#
0-
0.
#170000
0"
0+
#175000
1"
1+
0/
0#
1-
1.
#180000
0!
0"
0,
0+
0-
0.
#185000
1!
1"
1,
1+
1-
1.
#190000
0"
0+
#195000
1"
1+
1/
1#
0-
0.
#200000
0!
0"
0,
0+
1-
1.
#205000
1!
1"
1,
1+
0-
0.
#210000
0!
0"
0,
0+
1-
1.
#215000
1!
1"
1,
1+
0-
0.
#220000
0!
0"
0,
0+
1-
1.
#225000
1"
1+
#230000
1!
0"
1,
0+
0-
0.
#235000
0!
1"
0,
1+
1-
1.
0/
0#
0-
0.
#240000
0"
0+
#245000
1"
1+
#250000
0"
0+
#255000
1!
1"
1,
1+
1-
1.
#260000
0!
0"
0,
0+
0-
0.
#265000
1!
1"
1,
1+
1-
1.
#270000
0"
0+
#275000
1"
1+
1/
1#
0-
0.
#280000
0"
0+
#285000
0!
1"
0,
1+
1-
1.
0/
0#
0-
0.
#290000
0"
0+
#295000
1"
1+
#300000
1!
0"
1,
0+
1-
1.
#305000
0!
1"
0,
1+
0-
0.
1/
1#
1-
1.
#310000
1!
0"
1,
0+
0-
0.
#315000
0!
1"
0,
1+
1-
1.
0/
0#
0-
0.
#320000
1!
0"
1,
0+
1-
1.
#325000
1"
1+
1/
1#
0-
0.
#330000
0"
0+
#335000
1"
1+
0/
0#
1-
1.
#340000
0"
0+
#345000
0!
1"
0,
1+
0-
0.
1/
1#
1-
1.
#350000
0"
0+
#355000
1!
1"
1,
1+
0-
0.
#360000
0!
0"
0,
0+
1-
1.
#365000
1"
1+
#370000
0"
0+
#375000
1!
1"
1,
1+
0-
0.
#380000
0!
0"
0,
0+
1-
1.
#385000
1!
1"
1,
1+
0-
0.
#390000
0"
0+
#395000
0!
1"
0,
1+
1-
1.
0/
0#
0-
0.
#400000
1!
0"
1,
0+
1-
1.
#405000
1"
1+
1/
1#
0-
0.
#410000
0!
0"
0,
0+
1-
1.
#415000
1"
1+
#420000
0"
0+
#425000
1"
1+
#430000
1!
0"
1,
0+
0-
0.
#435000
1"
1+
0/
0#
1-
1.
#440000
0"
0+
#445000
1"
1+
1/
1#
0-
0.
#450000
0"
0+
#455000
0!
1"
0,
1+
1-
1.
0/
0#
0-
0.
#460000
1!
0"
1,
0+
1-
1.
#465000
1"
1+
1/
1#
0-
0.
#470000
0!
0"
0,
0+
1-
1.
#475000
1!
1"
1,
1+
0-
0.
#480000
0"
0+
#485000
1"
1+
0/
0#
1-
1.
#490000
0!
0"
0,
0+
0-
0.
#495000
1"
1+
#500000
1!
0"
1,
0+
1-
1.
#505000
0!
1"
0,
1+
0-
0.
1/
1#
1-
1.
#510000
0"
0+
#515000
1"
1+
#520000
1!
0"
1,
0+
0-
0.
#525000
0!
1"
0,
1+
1-
1.
0/
0#
0-
0.
#530000
1!
0"
1,
0+
1-
1.
#535000
0!
1"
0,
1+
0-
0.
1/
1#
1-
1.
#540000
0"
0+
#545000
1!
1"
1,
1+
0-
0.
#550000
0"
0+
#555000
1"
1+
0/
0#
1-
1.
#560000
0!
0"
0,
0+
0-
0.
#565000
1!
1"
1,
1+
1-
1.
#570000
0!
0"
0,
0+
0-
0.
#575000
1"
1+
#580000
1!
0"
1,
0+
1-
1.
#585000
0!
1"
0,
1+
0-
0.
1/
1#
1-
1.
#590000
1!
0"
1,
0+
0-
0.
#595000
1"
1+
0/
0#
1-
1.
#600000
0"
0+
#605000
0!
1"
0,
1+
0-
0.
1/
1#
1-
1.
#610000
1!
0"
1,
0+
0-
0.
#615000
0!
1"
0,
1+
1-
1.
0/
0#
0-
0.
#620000
0"
0+
#625000
1"
1+
#630000
1!
0"
1,
0+
1-
1.
#635000
1"
1+
1/
1#
0-
0.
#640000
0"
0+
#645000
1"
1+
0/
0#
1-
1.
#650000
0!
0"
0,
0+
0-
0.
#655000
1!
1"
1,
1+
1-
1.
#660000
0"
0+
#665000
1"
1+
1/
1#
0-
0.
#670000
0!
0"
0,
0+
1-
1.
#675000
1!
1"
1,
1+
0-
0.
#680000
0!
0"
0,
0+
1-
1.
#685000
1!
1"
1,
1+
0-
0.
#690000
0!
0"
0,
0+
1-
1.
#695000
1"
1+
#700000
1!
0"
1,
0+
0-
0.
#705000
1"
1+
0/
0#
1-
1.
#710000
0"
0+
#715000
0!
1"
0,
1+
0-
0.
1/
1#
1-
1.
#720000
0"
0+
#725000
1"
1+
#730000
1!
0"
1,
0+
0-
0.
#735000
0!
1"
0,
1+
1-
1.
0/
0#
0-
0.
#740000
1!
0"
1,
0+
1-
1.
#745000
1"
1+
1/
1#
0-
0.
#750000
0"
0+
#755000
0!
1"
0,
1+
1-
1.
0/
0#
0-
0.
#760000
1!
0"
1,
0+
1-
1.
#765000
1"
1+
1/
1#
0-
0.
#770000
0"
0+
#775000
1"
1+
0/
0#
1-
1.
#780000
0!
0"
0,
0+
0-
0.
#785000
1!
1"
1,
1+
1-
1.
#790000
0!
0"
0,
0+
0-
0.
#795000
1"
1+
#800000
0"
0+
#805000
1!
1"
1,
1+
1-
1.
#810000
0!
0"
0,
0+
0-
0.
#815000
1"
1+
#820000
0"
0+
#825000
1!
1"
1,
1+
1-
1.
#830000
0!
0"
0,
0+
0-
0.
#835000
1"
1+
#840000
0"
0+
#845000
1!
1"
1,
1+
1-
1.
#850000
0!
0"
0,
0+
0-
0.
#855000
1!
1"
1,
1+
1-
1.
#860000
0"
0+
#865000
1"
1+
1/
1#
0-
0.
#870000
0!
0"
0,
0+
1-
1.
#875000
1"
1+
#880000
1!
0"
1,
0+
0-
0.
#885000
0!
1"
0,
1+
1-
1.
0/
0#
0-
0.
#890000
0"
0+
#895000
1!
1"
1,
1+
1-
1.
#900000
0"
0+
#905000
1"
1+
1/
1#
0-
0.
#910000
0"
0+
#915000
1"
1+
0/
0#
1-
1.
#920000
0!
0"
0,
0+
0-
0.
#925000
1"
1+
#930000
0"
0+
#935000
1"
1+
#940000
0"
0+
#945000
1!
1"
1,
1+
1-
1.
#950000
0!
0"
0,
0+
0-
0.
#955000
1!
1"
1,
1+
1-
1.
#960000
0"
0+
#965000
1"
1+
1/
1#
0-
0.
#970000
0!
0"
0,
0+
1-
1.
#975000
1"
1+
#980000
0"
0+
#985000
1"
1+
#990000
1!
0"
1,
0+
0-
0.
#995000
1"
1+
0/
0#
1-
1.
