代码/Verilog HDL/数电/D_bianyan/simulation/qsim/D_bianyan.msim.vcd
$comment
	File created using the following command:
		vcd file D_bianyan.msim.vcd -direction
$end
$date
	Sun Nov 24 00:39:35 2019
$end
$version
	ModelSim Version 10.5b
$end
$timescale
	1ps
$end

$scope module D_bianyan_vlg_vec_tst $end
$var reg 1 ! D $end
$var reg 1 " clk $end
$var wire 1 # Q $end

$scope module i1 $end
$var wire 1 $ gnd $end
$var wire 1 % vcc $end
$var wire 1 & unknown $end
$var tri1 1 ' devclrn $end
$var tri1 1 ( devpor $end
$var tri1 1 ) devoe $end
$var wire 1 * ~QUARTUS_CREATED_GND~I_combout $end
$var wire 1 + clk~input_o $end
$var wire 1 , D~input_o $end
$var wire 1 - Q~reg0feeder_combout $end
$var wire 1 . Q~reg0_q $end
$upscope $end
$upscope $end
$enddefinitions $end
#0
$dumpvars
0!
0"
0#
0$
1%
x&
1'
1(
1)
0*
0+
0,
0-
0.
$end
#5000
1"
1!
1,
1+
1-
#10000
0"
0!
0,
0+
0-
#15000
1"
1!
1,
1+
1-
#20000
0"
0+
#25000
0!
1"
0,
1+
0-
1.
1#
#30000
0"
0+
#35000
1!
1"
1,
1+
1-
0.
0#
#40000
0"
0+
#45000
0!
1"
0,
1+
0-
1.
1#
#50000
1!
0"
1,
0+
1-
#55000
0!
1"
0,
1+
0-
#60000
1!
0"
1,
0+
1-
#65000
1"
1+
#70000
0!
0"
0,
0+
0-
#75000
1"
1+
0.
0#
#80000
1!
0"
1,
0+
1-
#85000
0!
1"
0,
1+
0-
1.
1#
#90000
1!
0"
1,
0+
1-
#95000
0!
1"
0,
1+
0-
#100000
1!
0"
1,
0+
1-
#105000
0!
1"
0,
1+
0-
#110000
0"
0+
#115000
1"
1+
0.
0#
#120000
0"
0+
#125000
1!
1"
1,
1+
1-
#130000
0!
0"
0,
0+
0-
#135000
1!
1"
1,
1+
1-
#140000
0!
0"
0,
0+
0-
#145000
1"
1+
#150000
1!
0"
1,
0+
1-
#155000
1"
1+
1.
1#
#160000
0"
0+
#165000
0!
1"
0,
1+
0-
#170000
1!
0"
1,
0+
1-
#175000
0!
1"
0,
1+
0-
#180000
1!
0"
1,
0+
1-
#185000
1"
1+
#190000
0"
0+
#195000
1"
1+
#200000
0"
0+
#205000
1"
1+
#210000
0!
0"
0,
0+
0-
#215000
1!
1"
1,
1+
1-
0.
0#
#220000
0!
0"
0,
0+
0-
#225000
1!
1"
1,
1+
1-
#230000
0!
0"
0,
0+
0-
#235000
1"
1+
#240000
0"
0+
#245000
1"
1+
#250000
1!
0"
1,
0+
1-
#255000
1"
1+
1.
1#
#260000
0!
0"
0,
0+
0-
#265000
1"
1+
0.
0#
#270000
1!
0"
1,
0+
1-
#275000
1"
1+
1.
1#
#280000
0"
0+
#285000
1"
1+
#290000
0!
0"
0,
0+
0-
#295000
1!
1"
1,
1+
1-
0.
0#
#300000
0!
0"
0,
0+
0-
#305000
1!
1"
1,
1+
1-
#310000
0!
0"
0,
0+
0-
#315000
1"
1+
#320000
1!
0"
1,
0+
1-
#325000
1"
1+
1.
1#
#330000
0!
0"
0,
0+
0-
#335000
1"
1+
0.
0#
#340000
0"
0+
#345000
1!
1"
1,
1+
1-
#350000
0"
0+
#355000
1"
1+
1.
1#
#360000
0!
0"
0,
0+
0-
#365000
1!
1"
1,
1+
1-
0.
0#
#370000
0!
0"
0,
0+
0-
#375000
1"
1+
#380000
0"
0+
#385000
1!
1"
1,
1+
1-
#390000
0!
0"
0,
0+
0-
#395000
1!
1"
1,
1+
1-
#400000
0!
0"
0,
0+
0-
#405000
1"
1+
#410000
0"
0+
#415000
1!
1"
1,
1+
1-
#420000
0!
0"
0,
0+
0-
#425000
1"
1+
#430000
1!
0"
1,
0+
1-
#435000
1"
1+
1.
1#
#440000
0!
0"
0,
0+
0-
#445000
1!
1"
1,
1+
1-
0.
0#
#450000
0!
0"
0,
0+
0-
#455000
1!
1"
1,
1+
1-
#460000
0"
0+
#465000
1"
1+
1.
1#
#470000
0"
0+
#475000
1"
1+
#480000
0!
0"
0,
0+
0-
#485000
1"
1+
0.
0#
#490000
0"
0+
#495000
1!
1"
1,
1+
1-
#500000
0"
0+
#505000
0!
1"
0,
1+
0-
1.
1#
#510000
1!
0"
1,
0+
1-
#515000
0!
1"
0,
1+
0-
#520000
1!
0"
1,
0+
1-
#525000
1"
1+
#530000
0!
0"
0,
0+
0-
#535000
1"
1+
0.
0#
#540000
0"
0+
#545000
1!
1"
1,
1+
1-
#550000
0"
0+
#555000
1"
1+
1.
1#
#560000
0"
0+
#565000
0!
1"
0,
1+
0-
#570000
1!
0"
1,
0+
1-
#575000
0!
1"
0,
1+
0-
#580000
0"
0+
#585000
1"
1+
0.
0#
#590000
0"
0+
#595000
1!
1"
1,
1+
1-
#600000
0"
0+
#605000
1"
1+
1.
1#
#610000
0!
0"
0,
0+
0-
#615000
1"
1+
0.
0#
#620000
1!
0"
1,
0+
1-
#625000
0!
1"
0,
1+
0-
1.
1#
#630000
1!
0"
1,
0+
1-
#635000
1"
1+
#640000
0!
0"
0,
0+
0-
#645000
1!
1"
1,
1+
1-
0.
0#
#650000
0"
0+
#655000
0!
1"
0,
1+
0-
1.
1#
#660000
0"
0+
#665000
1"
1+
0.
0#
#670000
0"
0+
#675000
1!
1"
1,
1+
1-
#680000
0!
0"
0,
0+
0-
#685000
1!
1"
1,
1+
1-
#690000
0"
0+
#695000
0!
1"
0,
1+
0-
1.
1#
#700000
0"
0+
#705000
1"
1+
0.
0#
#710000
0"
0+
#715000
1!
1"
1,
1+
1-
#720000
0"
0+
#725000
0!
1"
0,
1+
0-
1.
1#
#730000
1!
0"
1,
0+
1-
#735000
0!
1"
0,
1+
0-
#740000
0"
0+
#745000
1!
1"
1,
1+
1-
0.
0#
#750000
0"
0+
#755000
1"
1+
1.
1#
#760000
0!
0"
0,
0+
0-
#765000
1!
1"
1,
1+
1-
0.
0#
#770000
0"
0+
#775000
0!
1"
0,
1+
0-
1.
1#
#780000
0"
0+
#785000
1"
1+
0.
0#
#790000
1!
0"
1,
0+
1-
#795000
0!
1"
0,
1+
0-
1.
1#
#800000
1!
0"
1,
0+
1-
#805000
0!
1"
0,
1+
0-
#810000
0"
0+
#815000
1"
1+
0.
0#
#820000
0"
0+
#825000
1"
1+
#830000
1!
0"
1,
0+
1-
#835000
1"
1+
1.
1#
#840000
0"
0+
#845000
1"
1+
#850000
0"
0+
#855000
0!
1"
0,
1+
0-
#860000
0"
0+
#865000
1"
1+
0.
0#
#870000
1!
0"
1,
0+
1-
#875000
0!
1"
0,
1+
0-
1.
1#
#880000
1!
0"
1,
0+
1-
#885000
1"
1+
#890000
0"
0+
#895000
1"
1+
#900000
0!
0"
0,
0+
0-
#905000
1!
1"
1,
1+
1-
0.
0#
#910000
0!
0"
0,
0+
0-
#915000
1!
1"
1,
1+
1-
#920000
0"
0+
#925000
1"
1+
1.
1#
#930000
0"
0+
#935000
1"
1+
#940000
0!
0"
0,
0+
0-
#945000
1"
1+
0.
0#
#950000
0"
0+
#955000
1"
1+
#960000
0"
0+
#965000
1"
1+
#970000
1!
0"
1,
0+
1-
#975000
0!
1"
0,
1+
0-
1.
1#
#980000
1!
0"
1,
0+
1-
#985000
0!
1"
0,
1+
0-
#990000
1!
0"
1,
0+
1-
#995000
0!
1"
0,
1+
0-
